; Engine configuration file.
; It's best edited using the editor UI and not directly,
; since the parameters that go here are not all obvious.
;
; Format:
;   [section] ; section goes between []
;   param=value ; assign values to parameters

config_version=4

_global_script_classes=[  ]
_global_script_class_icons={

}

[application]

config/name="Juego"
run/main_scene="res://FirstLevel.tscn"
config/icon="res://icon.png"

[display]

window/size/width=1402
window/size/height=866

[layer_names]

2d_physics/layer_1="Player"
2d_physics/layer_2="pBullet"
2d_physics/layer_3="Floor"
2d_physics/layer_4="Enemy"
2d_physics/layer_5="eBullet"

[rendering]

environment/default_environment="res://default_env.tres"
